====== 15. The Promised Land ======


===== Overview: =====


God brought Joshua and the Israelites into the Promised Land with power and miracles. God dried up the Jordan River and knocked down the walls of Jericho. He made the sun stand still, and killed their enemies with hailstones. Israel defeated the Canaanites and divided the lands among their twelve tribes. Then Joshua renewed their covenant with God, and they promised to obey and serve him.


====== Translate the Story ======


Click on the links below to translate each frame of the story.


[[:es-419:obs:notes:frames:15-01|{{https://api.unfoldingword.org/obs/jpg/1/en/360px/obs-en-15-01.jpg?200|Frame 15-01}}]]\\ 
The Two Spies [15-01]\\ 

[[:es-419:obs:notes:frames:15-02|{{https://api.unfoldingword.org/obs/jpg/1/en/360px/obs-en-15-02.jpg?200|Frame 15-02}}]]\\ 
Crossing the Jordan River [15-02]\\ 

[[:es-419:obs:notes:frames:15-03|{{https://api.unfoldingword.org/obs/jpg/1/en/360px/obs-en-15-03.jpg?200|Frame 15-03}}]]\\ 
Marching around Jericho [15-03]\\ 

[[:es-419:obs:notes:frames:15-04|{{https://api.unfoldingword.org/obs/jpg/1/en/360px/obs-en-15-04.jpg?200|Frame 15-04}}]]\\ 
Shouting to God [15-04]\\ 

[[:es-419:obs:notes:frames:15-05|{{https://api.unfoldingword.org/obs/jpg/1/en/360px/obs-en-15-05.jpg?200|Frame 15-05}}]]\\ 
The Walls Fell Down [15-05]\\ 

[[:es-419:obs:notes:frames:15-06|{{https://api.unfoldingword.org/obs/jpg/1/en/360px/obs-en-15-06.jpg?200|Frame 15-06}}]]\\ 
The Gibeonites' Lie [15-06]\\ 

[[:es-419:obs:notes:frames:15-07|{{https://api.unfoldingword.org/obs/jpg/1/en/360px/obs-en-15-07.jpg?200|Frame 15-07}}]]\\ 
The Gibeonites in Danger [15-07]\\ 

[[:es-419:obs:notes:frames:15-08|{{https://api.unfoldingword.org/obs/jpg/1/en/360px/obs-en-15-08.jpg?200|Frame 15-08}}]]\\ 
Israel Helped the Gibeonites [15-08]\\ 

[[:es-419:obs:notes:frames:15-09|{{https://api.unfoldingword.org/obs/jpg/1/en/360px/obs-en-15-09.jpg?200|Frame 15-09}}]]\\ 
God Fought the Amorites [15-09]\\ 

[[:es-419:obs:notes:frames:15-10|{{https://api.unfoldingword.org/obs/jpg/1/en/360px/obs-en-15-10.jpg?200|Frame 15-10}}]]\\ 
The Sun Stood Still [15-10]\\ 

[[:es-419:obs:notes:frames:15-11|{{https://api.unfoldingword.org/obs/jpg/1/en/360px/obs-en-15-11.jpg?200|Frame 15-11}}]]\\ 
Israel Defeated the Canaanites [15-11]\\ 

[[:es-419:obs:notes:frames:15-12|{{https://api.unfoldingword.org/obs/jpg/1/en/360px/obs-en-15-12.jpg?200|Frame 15-12}}]]\\ 
Dividing the Promised Land [15-12]\\ 

[[:es-419:obs:notes:frames:15-13|{{https://api.unfoldingword.org/obs/jpg/1/en/360px/obs-en-15-13.jpg?200|Frame 15-13}}]]\\ 
Joshua Renewed the Covenant [15-13]\\ 


//A Bible story from: Joshua 1-24//

**[[:es-419:obs:notes:14|<< Previous]] | [[:es-419:obs:notes:16|Next >>]]**