====== Historia #6: Dios provee para Isaac ======

===== Preguntas Comprensivas y Respuestas  =====

  - **¿Porqué Abraham envió a su criado de vuelta a la tierra de los parientes de  Abraham?**
      * //Para que le trajera una esposa para su hijo, Isaac. [06-01]//
  - **¿Cómo el criado encontró a Rebeca? **
      * //Dios lo guió a ella.  [06-02]//
  - **¿Cómo estaba Rebeca relacionada con**** Abraham?**
      * //Rebeca era la nieta del hermano de Abraham. [06-02]//
  - **¿Fue Rebeca forzada a ir con el criado para casarse con ****Isaac?**
      * //No, ella acordó ir. [06-03]//
  - **¿Qué promesas de Dios pasaron a Isaac cuando Abraham murió?  **
      * //Todas las promesas que Dios le había hecho a Abraham, incluyendo la de una descendencia que no se podría contar.   [06-04]//
  - **¿Porqué parecia que la promesa de una descendencia que no se podría contar no iba a poder cumplirse a través de Isaac?  **
      * //Rebeca no podía tener hijos. [06-04]//
  - **¿Qué le dijo Dios a Rebeca sobre sus hijos gemelos antes de que ellos nacieran?  **
      * //Ellos se convertirán en dos naciones, el hijo mayor servirá al menor.   [06-06]//
  - **¿Cúal es el nombre del hijo mayor?  **
      * //Esau. [06-07]//
  - **¿Cúal es el nombre del hijo menor?  **
      * //Jacob. [06-07]//
**[[:es-419:obs:notes:questions:05|<< ]] | [[:es-419:obs:notes:questions:07| >>]]**
